{
    "name": "<%= entityName %>Create",
    "run_as_user_id": "",
    "run_as_user_id_script_source": "",
    "options": {
        "httpMethod": "POST",
        "validationMethod": "NO_VALIDATION"
    },
    "respond_result": true
}
